Манипуляции над данными, работа с таблицами
…
filter(greendb, height_m == 10, d_trunk_m > 0.4, species_ru == "Ель колючая" )

## # A tibble: 3 x 7
##   objectid species_ru  species_l height_m d_trunk_m d_canopy_m adm_region       
##      <dbl> <chr>       <lgl>        <dbl>     <dbl> <lgl>      <chr>            
## 1  4662600 Ель колючая NA              10      0.44 NA         район Щукино     
## 2  2337476 Ель колючая NA              10      0.44 NA         район Ново-Перед~
## 3  5060902 Ель колючая NA              10      0.44 NA         район Щукино

Следующий код находит все рейсы, отправленные в ноябре или декабре:

filter(greendb, adm_region == "район Щукино" | species_ru == "Ель колючая")

## # A tibble: 38,654 x 7
##    objectid species_ru      species_l height_m d_trunk_m d_canopy_m adm_region  
##       <dbl> <chr>           <lgl>        <dbl>     <dbl> <lgl>      <chr>       
##  1  3292138 Ель колючая     NA            10        0.24 NA         район Просп~
##  2  3292139 Ель колючая     NA            10        0.24 NA         район Просп~
##  3  3292492 Липа мелколист~ NA            15        0.18 NA         район Щукино
##  4  3295362 Ель колючая     NA             1.3     NA    NA         район Митино
##  5  3295756 Ива ломкая      NA            12        0.26 NA         район Щукино
##  6  3296086 Липа мелколист~ NA            10        0.18 NA         район Щукино
##  7  3296351 Береза повисла~ NA             6        0.12 NA         район Щукино
##  8  3296341 Липа мелколист~ NA            15        0.32 NA         район Щукино
##  9  3296342 Липа мелколист~ NA            15        0.46 NA         район Щукино
## 10  3297987 Липа мелколист~ NA            15        0.32 NA         район Щукино
## # ... with 38,644 more rows

Полезным конструкцией для решения подобных проблем является x %in% y. Она выберет каждую строку, где x является одним из значений y. Мы могли бы использовать его для перезаписи предыдущего кода:

nov_dec <- filter(flights, month %in% c(11, 12))

arrange() работает аналогично filter(), за исключением того, что вместо выбора строк изменяется их порядок. Он принимает таблицу данных и набор имен столбцов (или более сложных выражений) для упорядочения. Если вы укажете более одного имени столбца, каждый дополнительный столбец будет использоваться для разрыва связей в значениях предыдущих столбцов:

arrange(flights, year, month, day)

## # A tibble: 336,776 x 19
##     year month   day dep_time sched_dep_time dep_delay arr_time sched_arr_time
##    <int> <int> <int>    <int>          <int>     <dbl>    <int>          <int>
##  1  2013     1     1      517            515         2      830            819
##  2  2013     1     1      533            529         4      850            830
##  3  2013     1     1      542            540         2      923            850
##  4  2013     1     1      544            545        -1     1004           1022
##  5  2013     1     1      554            600        -6      812            837
##  6  2013     1     1      554            558        -4      740            728
##  7  2013     1     1      555            600        -5      913            854
##  8  2013     1     1      557            600        -3      709            723
##  9  2013     1     1      557            600        -3      838            846
## 10  2013     1     1      558            600        -2      753            745
## # ... with 336,766 more rows, and 11 more variables: arr_delay <dbl>,
## #   carrier <chr>, flight <int>, tailnum <chr>, origin <chr>, dest <chr>,
## #   air_time <dbl>, distance <dbl>, hour <dbl>, minute <dbl>, time_hour <dttm>

arrange(flights, desc(arr_delay))

## # A tibble: 336,776 x 19
##     year month   day dep_time sched_dep_time dep_delay arr_time sched_arr_time
##    <int> <int> <int>    <int>          <int>     <dbl>    <int>          <int>
##  1  2013     1     9      641            900      1301     1242           1530
##  2  2013     6    15     1432           1935      1137     1607           2120
##  3  2013     1    10     1121           1635      1126     1239           1810
##  4  2013     9    20     1139           1845      1014     1457           2210
##  5  2013     7    22      845           1600      1005     1044           1815
##  6  2013     4    10     1100           1900       960     1342           2211
##  7  2013     3    17     2321            810       911      135           1020
##  8  2013     7    22     2257            759       898      121           1026
##  9  2013    12     5      756           1700       896     1058           2020
## 10  2013     5     3     1133           2055       878     1250           2215
## # ... with 336,766 more rows, and 11 more variables: arr_delay <dbl>,
## #   carrier <chr>, flight <int>, tailnum <chr>, origin <chr>, dest <chr>,
## #   air_time <dbl>, distance <dbl>, hour <dbl>, minute <dbl>, time_hour <dttm>

Функция desc() говорит о том, что колонку нужно пересортировать от большего к меньшему

Это не редкость, когда приходиться работать с наборами данных с сотнями или даже тысячами переменных. В этом случае первая задача часто сводится к получению таблицы с набором переменных, которые вам действительно интересны. Select() позволяет быстро получить полезное подмножество, используя операции, основанные на именах переменных.

select(flights, year, month, day)

## # A tibble: 336,776 x 3
##     year month   day
##    <int> <int> <int>
##  1  2013     1     1
##  2  2013     1     1
##  3  2013     1     1
##  4  2013     1     1
##  5  2013     1     1
##  6  2013     1     1
##  7  2013     1     1
##  8  2013     1     1
##  9  2013     1     1
## 10  2013     1     1
## # ... with 336,766 more rows

Интересной особенностью является возможностью выбирать ряд колонок меж двух заданных

select(flights, year:day)

## # A tibble: 336,776 x 3
##     year month   day
##    <int> <int> <int>
##  1  2013     1     1
##  2  2013     1     1
##  3  2013     1     1
##  4  2013     1     1
##  5  2013     1     1
##  6  2013     1     1
##  7  2013     1     1
##  8  2013     1     1
##  9  2013     1     1
## 10  2013     1     1
## # ... with 336,766 more rows

select(flights, -(year:day))

## # A tibble: 336,776 x 16
##    dep_time sched_dep_time dep_delay arr_time sched_arr_time arr_delay carrier
##       <int>          <int>     <dbl>    <int>          <int>     <dbl> <chr>  
##  1      517            515         2      830            819        11 UA     
##  2      533            529         4      850            830        20 UA     
##  3      542            540         2      923            850        33 AA     
##  4      544            545        -1     1004           1022       -18 B6     
##  5      554            600        -6      812            837       -25 DL     
##  6      554            558        -4      740            728        12 UA     
##  7      555            600        -5      913            854        19 B6     
##  8      557            600        -3      709            723       -14 EV     
##  9      557            600        -3      838            846        -8 B6     
## 10      558            600        -2      753            745         8 AA     
## # ... with 336,766 more rows, and 9 more variables: flight <int>,
## #   tailnum <chr>, origin <chr>, dest <chr>, air_time <dbl>, distance <dbl>,
## #   hour <dbl>, minute <dbl>, time_hour <dttm>

Помимо выбора наборов существующих столбцов, часто полезно добавлять новые столбцы, которые являются функциями существующих столбцов. Это задача функции mutate().

flights_sml <- select(flights, year:day, ends_with("delay"), distance, air_time )
mutate(flights_sml, gain = arr_delay - dep_delay, speed = distance / air_time * 60)

## # A tibble: 336,776 x 9
##     year month   day dep_delay arr_delay distance air_time  gain speed
##    <int> <int> <int>     <dbl>     <dbl>    <dbl>    <dbl> <dbl> <dbl>
##  1  2013     1     1         2        11     1400      227     9  370.
##  2  2013     1     1         4        20     1416      227    16  374.
##  3  2013     1     1         2        33     1089      160    31  408.
##  4  2013     1     1        -1       -18     1576      183   -17  517.
##  5  2013     1     1        -6       -25      762      116   -19  394.
##  6  2013     1     1        -4        12      719      150    16  288.
##  7  2013     1     1        -5        19     1065      158    24  404.
##  8  2013     1     1        -3       -14      229       53   -11  259.
##  9  2013     1     1        -3        -8      944      140    -5  405.
## 10  2013     1     1        -2         8      733      138    10  319.
## # ... with 336,766 more rows
…
summarize(flights, delay = mean(dep_delay, na.rm = TRUE))

## # A tibble: 1 x 1
##   delay
##   <dbl>
## 1  12.6

Функция summarize() не очень полезна, если мы будем сипользовать ее без group_by (). Она изменяет единицу анализа от полного набора данных к отдельным группам. Затем, когда вы используете функции dplyr в сгруппированном фрейме данных, они будут автоматически применяться «по группам». Например, если мы применили точно такой же код к таблице данных, сгруппированным по дате, мы получим среднюю задержку на дату:

by_day <- group_by(flights, year, month, day)
summarize(by_day, delay = mean(dep_delay, na.rm = TRUE))

## `summarise()` has grouped output by 'year', 'month'. You can override using the `.groups` argument.

## # A tibble: 365 x 4
## # Groups:   year, month [12]
##     year month   day delay
##    <int> <int> <int> <dbl>
##  1  2013     1     1 11.5 
##  2  2013     1     2 13.9 
##  3  2013     1     3 11.0 
##  4  2013     1     4  8.95
##  5  2013     1     5  5.73
##  6  2013     1     6  7.15
##  7  2013     1     7  5.42
##  8  2013     1     8  2.55
##  9  2013     1     9  2.28
## 10  2013     1    10  2.84
## # ... with 355 more rows
…
Оператор папинга %>% очень удобен для объединения нескольких функций dplyr в последовательность операций. Обратите внимание, что каждый раз, когда мы хотели применить более одной функции, последовательность вкладывается в последовательности вложенных вызовов функций, которые очень трудно читать, например:

third(second(first(x)))

Это сильно отличается от того, как мы думаем и представляем себе последовательность операций. Оператор %>% позволяет вам выполнять последовательность операции слева направо, т. е.

First (x) %>% second %>% third

Например, последние наши действия можно теперь записать более наглядным образом:

group_by(flights, year, month, day) %>% summarize( delay = mean(dep_delay, na.rm = TRUE))

## `summarise()` has grouped output by 'year', 'month'. You can override using the `.groups` argument.

## # A tibble: 365 x 4
## # Groups:   year, month [12]
##     year month   day delay
##    <int> <int> <int> <dbl>
##  1  2013     1     1 11.5 
##  2  2013     1     2 13.9 
##  3  2013     1     3 11.0 
##  4  2013     1     4  8.95
##  5  2013     1     5  5.73
##  6  2013     1     6  7.15
##  7  2013     1     7  5.42
##  8  2013     1     8  2.55
##  9  2013     1     9  2.28
## 10  2013     1    10  2.84
## # ... with 355 more rows
…
## Warning: 8742 parsing failures.
## row col    expected      actual                                                         file
##   1  -- 125 columns 131 columns 'https://www.dropbox.com/s/erhs9hoj4vhrz0b/eddypro.csv?dl=1'
##   2  -- 125 columns 131 columns 'https://www.dropbox.com/s/erhs9hoj4vhrz0b/eddypro.csv?dl=1'
##   3  -- 125 columns 131 columns 'https://www.dropbox.com/s/erhs9hoj4vhrz0b/eddypro.csv?dl=1'
##   4  -- 125 columns 131 columns 'https://www.dropbox.com/s/erhs9hoj4vhrz0b/eddypro.csv?dl=1'
##   5  -- 125 columns 131 columns 'https://www.dropbox.com/s/erhs9hoj4vhrz0b/eddypro.csv?dl=1'
## ... ... ........... ........... ............................................................
## See problems(...) for more details.

tbl

## # A tibble: 8,742 x 125
##    file_info  X2     X3     X4    X5    X6    X7    corrected_fluxe~ X9    X10  
##    <chr>      <chr>  <chr>  <chr> <chr> <chr> <chr> <chr>            <chr> <chr>
##  1 filename   date   time   DOY   dayt~ file~ used~ Tau              qc_T~ rand~
##  2 <NA>       [yyyy~ [HH:M~ [ddd~ [T/F] [#]   [#]   [kg+1m-1s-2]     [#]   [kg+~
##  3 2013-05-1~ 2013-~ 19:00  133.~ T     36000 36000 6.1421563557279~ 1     7.74~
##  4 2013-05-1~ 2013-~ 19:30  133.~ F     36000 36000 5.4505740676589~ 4     7.18~
##  5 2013-05-1~ 2013-~ 20:00  133.~ F     36000 36000 6.3575995727091~ 1     1.01~
##  6 2013-05-1~ 2013-~ 20:30  133.~ F     36000 36000 2.7864866398925~ 1     3.00~
##  7 2013-05-1~ 2013-~ 21:00  133.~ F     36000 36000 5.2068050915970~ 9     -999~
##  8 2013-05-1~ 2013-~ 21:30  133.~ F     36000 36000 2.2669079711154~ 5     1.17~
##  9 2013-05-1~ 2013-~ 22:00  133.~ F     36000 36000 1.1717808154933~ 1     1.81~
## 10 2013-05-1~ 2013-~ 22:30  133.~ F     36000 36000 2.4471305498879~ 4     5.40~
## # ... with 8,732 more rows, and 115 more variables: X11 <chr>, X12 <chr>,
## #   X13 <chr>, X14 <chr>, X15 <chr>, X16 <chr>, X17 <chr>, X18 <chr>,
## #   X19 <chr>, X20 <chr>, X21 <chr>, X22 <chr>, storage_fluxes <chr>,
## #   X24 <chr>, X25 <chr>, X26 <chr>, vertical_advection_fluxes <chr>,
## #   X28 <chr>, gas_densities_concentrations_and_timelags <chr>, X30 <chr>,
## #   X31 <chr>, X32 <chr>, X33 <chr>, X34 <chr>, X35 <chr>, X36 <chr>,
## #   X37 <chr>, X38 <chr>, air_properties <chr>, X40 <chr>, X41 <chr>,
## #   X42 <chr>, X43 <chr>, X44 <chr>, X45 <chr>, X46 <chr>, X47 <chr>,
## #   X48 <chr>, X49 <chr>, X50 <chr>, X51 <chr>, unrotated_wind <chr>,
…
## Warning: Duplicated column names deduplicated: 'skweness_kurtosis' =>
## 'skweness_kurtosis_1' [93], 'discontinuities' => 'discontinuities_1' [95],
## 'timelag' => 'timelag_1' [97], 'co2' => 'co2_1' [127], 'h2o' => 'h2o_1' [128]

## 
## -- Column specification --------------------------------------------------------
## cols(
##   .default = col_character()
## )
## i Use `spec()` for the full column specifications.

tbl

## # A tibble: 8,741 x 131
##    filename   date   time  DOY   daytime file_records used_records Tau    qc_Tau
##    <chr>      <chr>  <chr> <chr> <chr>   <chr>        <chr>        <chr>  <chr> 
##  1 <NA>       [yyyy~ [HH:~ [ddd~ [T/F]   [#]          [#]          [kg+1~ [#]   
##  2 2013-05-1~ 2013-~ 19:00 133.~ T       36000        36000        6.142~ 1     
##  3 2013-05-1~ 2013-~ 19:30 133.~ F       36000        36000        5.450~ 4     
##  4 2013-05-1~ 2013-~ 20:00 133.~ F       36000        36000        6.357~ 1     
##  5 2013-05-1~ 2013-~ 20:30 133.~ F       36000        36000        2.786~ 1     
##  6 2013-05-1~ 2013-~ 21:00 133.~ F       36000        36000        5.206~ 9     
##  7 2013-05-1~ 2013-~ 21:30 133.~ F       36000        36000        2.266~ 5     
##  8 2013-05-1~ 2013-~ 22:00 133.~ F       36000        36000        1.171~ 1     
##  9 2013-05-1~ 2013-~ 22:30 133.~ F       36000        36000        2.447~ 4     
## 10 2013-05-1~ 2013-~ 23:00 133.~ F       36000        36000        9.273~ 4     
## # ... with 8,731 more rows, and 122 more variables: rand_err_Tau <chr>,
## #   H <chr>, qc_H <chr>, rand_err_H <chr>, LE <chr>, qc_LE <chr>,
## #   rand_err_LE <chr>, co2_flux <chr>, qc_co2_flux <chr>,
## #   rand_err_co2_flux <chr>, h2o_flux <chr>, qc_h2o_flux <chr>,
## #   rand_err_h2o_flux <chr>, H_strg <chr>, LE_strg <chr>, co2_strg <chr>,
## #   h2o_strg <chr>, co2_v-adv <chr>, h2o_v-adv <chr>, co2_molar_density <chr>,
## #   co2_mole_fraction <chr>, co2_mixing_ratio <chr>, co2_time_lag <chr>,
## #   co2_def_timelag <chr>, h2o_molar_density <chr>, h2o_mole_fraction <chr>,
## #   h2o_mixing_ratio <chr>, h2o_time_lag <chr>, h2o_def_timelag <chr>,
…
## Warning: 1 parsing failure.
## row col    expected    actual                                                         file
##   1  -- 131 columns 1 columns 'https://www.dropbox.com/s/erhs9hoj4vhrz0b/eddypro.csv?dl=1'

tbl

## # A tibble: 8,741 x 131
##    filename    date       time    DOY daytime file_records used_records      Tau
##    <chr>       <date>     <tim> <dbl> <chr>          <dbl>        <dbl>    <dbl>
##  1 <NA>        NA            NA   NA  <NA>              NA           NA NA      
##  2 2013-05-13~ 2013-05-13 19:00  134. T              36000        36000  0.0614 
##  3 2013-05-13~ 2013-05-13 19:30  134. F              36000        36000  0.0545 
##  4 2013-05-13~ 2013-05-13 20:00  134. F              36000        36000  0.0636 
##  5 2013-05-13~ 2013-05-13 20:30  134. F              36000        36000  0.0279 
##  6 2013-05-13~ 2013-05-13 21:00  134. F              36000        36000  0.00521
##  7 2013-05-13~ 2013-05-13 21:30  134. F              36000        36000  0.00227
##  8 2013-05-13~ 2013-05-13 22:00  134. F              36000        36000  0.0117 
##  9 2013-05-13~ 2013-05-13 22:30  134. F              36000        36000  0.0245 
## 10 2013-05-13~ 2013-05-13 23:00  134. F              36000        36000  0.00927
## # ... with 8,731 more rows, and 123 more variables: qc_Tau <dbl>,
## #   rand_err_Tau <dbl>, H <dbl>, qc_H <dbl>, rand_err_H <dbl>, LE <dbl>,
## #   qc_LE <dbl>, rand_err_LE <dbl>, co2_flux <dbl>, qc_co2_flux <dbl>,
## #   rand_err_co2_flux <dbl>, h2o_flux <dbl>, qc_h2o_flux <dbl>,
## #   rand_err_h2o_flux <dbl>, H_strg <dbl>, LE_strg <dbl>, co2_strg <dbl>,
## #   h2o_strg <dbl>, co2_v-adv <dbl>, h2o_v-adv <dbl>, co2_molar_density <dbl>,
## #   co2_mole_fraction <dbl>, co2_mixing_ratio <dbl>, co2_time_lag <dbl>,
## #   co2_def_timelag <chr>, h2o_molar_density <dbl>, h2o_mole_fraction <dbl>,
## #   h2o_mixing_ratio <dbl>, h2o_time_lag <dbl>, h2o_def_timelag <chr>,
…
## Warning: 1 parsing failure.
## row col    expected    actual                                                         file
##   1  -- 131 columns 1 columns 'https://www.dropbox.com/s/erhs9hoj4vhrz0b/eddypro.csv?dl=1'

tbl = tbl[-1,]
tbl

## # A tibble: 8,740 x 131
##    filename     date       time    DOY daytime file_records used_records     Tau
##    <chr>        <date>     <tim> <dbl> <lgl>          <dbl>        <dbl>   <dbl>
##  1 2013-05-13T~ 2013-05-13 19:00  134. TRUE           36000        36000 0.0614 
##  2 2013-05-13T~ 2013-05-13 19:30  134. FALSE          36000        36000 0.0545 
##  3 2013-05-13T~ 2013-05-13 20:00  134. FALSE          36000        36000 0.0636 
##  4 2013-05-13T~ 2013-05-13 20:30  134. FALSE          36000        36000 0.0279 
##  5 2013-05-13T~ 2013-05-13 21:00  134. FALSE          36000        36000 0.00521
##  6 2013-05-13T~ 2013-05-13 21:30  134. FALSE          36000        36000 0.00227
##  7 2013-05-13T~ 2013-05-13 22:00  134. FALSE          36000        36000 0.0117 
##  8 2013-05-13T~ 2013-05-13 22:30  134. FALSE          36000        36000 0.0245 
##  9 2013-05-13T~ 2013-05-13 23:00  134. FALSE          36000        36000 0.00927
## 10 2013-05-13T~ 2013-05-13 23:30  134. FALSE          36000        36000 0.0214 
## # ... with 8,730 more rows, and 123 more variables: qc_Tau <dbl>,
## #   rand_err_Tau <dbl>, H <dbl>, qc_H <dbl>, rand_err_H <dbl>, LE <dbl>,
## #   qc_LE <dbl>, rand_err_LE <dbl>, co2_flux <dbl>, qc_co2_flux <dbl>,
## #   rand_err_co2_flux <dbl>, h2o_flux <dbl>, qc_h2o_flux <dbl>,
## #   rand_err_h2o_flux <dbl>, H_strg <dbl>, LE_strg <dbl>, co2_strg <dbl>,
## #   h2o_strg <dbl>, co2_v-adv <dbl>, h2o_v-adv <dbl>, co2_molar_density <dbl>,
## #   co2_mole_fraction <dbl>, co2_mixing_ratio <dbl>, co2_time_lag <dbl>,
## #   co2_def_timelag <lgl>, h2o_molar_density <dbl>, h2o_mole_fraction <dbl>,
## #   h2o_mixing_ratio <dbl>, h2o_time_lag <dbl>, h2o_def_timelag <lgl>,
…
