РЎРѕР·РґР°РЅРёРµ РјРѕРґРµР»РµР№ Р»РёРЅРµР№РЅРѕР№ СЂРµРіСЂРµСЃСЃРёРё
…
Р›РёРЅРµР№РЅР°СЏ СЂРµРіСЂРµСЃСЃРёСЏ. РџСЂР°РєС‚РёРєР°

library(ggplot2)
library(dplyr)

options(stringsAsFactors = FALSE)

Р—Р°РіСЂСѓР·РёРј РґР°РЅРЅС‹Рµ СЃСЂР°РІРЅРµРЅРёСЏ РґРѕСЃС‚Р°С‚РєР° Рё СЂРѕСЃС‚Р° С‡РµР»РѕРІРµРєР° Рё СЂСЏРґР° РґСЂСѓРіРёС… РґРµРјРѕРіСЂР°С„РёС‡РµСЃРєРёС… С…Р°СЂР°РєС‚РµСЂРёСЃС‚РёРє РѕС‚ 1379 С‡РµР»РѕРІРµРє, РєРѕС‚РѕСЂС‹Рµ Р±С‹Р»Рё СЃРѕР±СЂР°РЅРЅС‹ РІ 1994 РіРѕРґСѓ. Р­С‚Рѕ СЃРёРјСѓР»РёСЂРѕРІР°РЅРЅС‹Рµ РґР°РЅРЅС‹Рµ, РѕСЃРЅРѕРІР°РЅРЅС‹Рµ РЅР° СЂРµР°Р»СЊРЅС‹С… РґР°РЅРЅС‹С…, СЃРѕР±СЂР°РЅРЅС‹С… Р“РµР»СЊРјР°РЅРѕРј Рё РҐРёР»Р»РѕРј.

wages <- read.csv("https://dl.dropboxusercontent.com/s/oq4dc134y8xdyce/wages.csv?dl=0")

tbl_df(wages)

## # A tibble: 1,379 x 6
##      earn height sex    race        ed   age
##     <dbl>  <dbl> <chr>  <chr>    <int> <int>
##  1 79571.   73.9 male   white       16    49
##  2 96397.   66.2 female white       16    62
##  3 48711.   63.8 female white       16    33
##  4 80478.   63.2 female other       16    95
##  5 82089.   63.1 female white       17    43
##  6 15313.   64.5 female white       15    30
##  7 47104.   61.5 female white       12    53
##  8 50960.   73.3 male   white       17    50
##  9  3213.   72.2 male   hispanic    15    25
## 10 42997.   72.4 male   white       12    30
## # ... with 1,369 more rows

Р•С‰Рµ РѕРґРёРЅ РЅР°Р±РѕСЂ РґР°РЅРЅС‹С… РїС‹С‚Р°РµС‚СЃСЏ РїСЂРѕРІРµСЂРёС‚СЊ РЅР°Р»РёС‡РёРµ СЃРІСЏР·Рё РјРµР¶РґСѓ РєР»РёРјР°С‚РѕРј Рё РїСЂРµСЃС‚СѓРїРЅРѕСЃС‚СЊСЋ РІ СЂР°Р·Р»РёС‡РЅС‹С… С€С‚Р°С‚Р°С… РЎРЁРђ.

crime <- read.csv("https://dl.dropboxusercontent.com/s/cecck1nuo217zy1/crime.csv?dl=0")

tbl_df(crime)

## # A tibble: 48 x 5
##    state       abbr    low murder tc2009
##    <chr>       <chr> <int>  <dbl>  <dbl>
##  1 Alabama     AL      -27    7.1  4338.
##  2 Alaska      AK      -80    3.2  3567.
##  3 Arizona     AZ      -40    5.5  3725.
##  4 Arkansas    AR      -29    6.3  4415.
##  5 California  CA      -45    5.4  3202.
##  6 Colorado    CO      -61    3.2  3024.
##  7 Connecticut CT      -32    3    2646.
##  8 Delaware    DE      -17    4.6  3997.
##  9 Florida     FL       -2    5.5  4454.
## 10 Georgia     GA      -17    6    4181.
## # ... with 38 more rows
…
